{
    "links": [
        {
            "type": "video",
            "title": "Without receiving compensation from Braskem, family decides to take back their property in Macei\u00f3",
            "assets": [
                {
                    "name": "",
                    "credit": " Alagoas TV",
                    "date": "18-10-2021",
                    "alt": "",
                    "src": "https://vimeo.com/728973548/453e455ac8",
                    "srt": ""
                }
            ]
        },
        {
            "type": "video",
            "title": "Is Macei\u00f3 a fair city?",
            "assets": [
                {
                    "name": "ISADORA PADILHA",
                    "credit": "",
                    "date": "08-07-2021",
                    "alt": "Is Macei\u00f3 a fair city? Is Macei\u00f3 a healthy city? How does the role of the country interfere in these aspects?",
                    "src": "https://vimeo.com/685459589/b1820b227d",
                    "srt": "ISADORA_15"
                }
            ]
        },
        {
            "type": "video",
            "title": "Development versus preservation of the environment 1",
            "assets": [
                {
                    "name": "JOS\u00c9 GERALDO MARQUES",
                    "credit": "",
                    "date": "21-06-2021",
                    "alt": "Is development always in opposition to the preservation of the environment?",
                    "src": "https://vimeo.com/683091235/4fc52f05ec",
                    "srt": "JOSE_17"
                }
            ]
        },
        {
            "type": "video",
            "title": "Development versus preservation of the environment 2",
            "assets": [
                {
                    "name": "DIEGO RODRIGUES",
                    "credit": "",
                    "date": "28-06-2021",
                    "alt": "Is development always in opposition to the preservation of the environment?",
                    "src": "https://vimeo.com/683104945/91ea3eb7c2",
                    "srt": "DIEGO_08"
                }
            ]
        },
        {
            "type": "link",
            "title": "Braskem's empty plan to recover Macei\u00f3",
            "assets": [
                {
                    "name": "",
                    "credit": "O Bastidor newspaper",
                    "date": "22-02-2022",
                    "alt": "",
                    "src": "https://obastidor.com.br/economia/o-plano-vazio-da-braskem-para-recuperar-maceio-2752",
                    "srt": ""
                }
            ]
        },
        {
            "type": "video",
            "title": "Risk of further subsidence in affected neighborhoods",
            "assets": [
                {
                    "name": "ABEL GALINDO",
                    "credit": "",
                    "date": "01-06-2021",
                    "alt": "What are the risks of new subsidence in the affected neighborhoods?",
                    "src": "https://vimeo.com/685478159/93480fdd34",
                    "srt": "ABEL_12"
                }
            ]
        },
        {
            "type": "video",
            "title": "Mines closure plan",
            "assets": [
                {
                    "name": "ABEL GALINDO",
                    "credit": "",
                    "date": "01-06-2021",
                    "alt": "Is it possible to stabilize Salgema's mines?",
                    "src": "https://vimeo.com/685471848/10ef4413d5",
                    "srt": "ABEL_10"
                }
            ]
        },
        {
            "type": "video",
            "title": "What to do with the region affected by Braskem's mining?",
            "assets": [
                {
                    "name": "DIEGO RODRIGUES",
                    "credit": "",
                    "date": "28-06-2021",
                    "alt": "What to do with the region that was affected by Braskem's mining?",
                    "src": "https://vimeo.com/683104728/58d91425dd",
                    "srt": "DIEGO_09"
                }
            ]
        },
        {
            "type": "link",
            "title": "One scandal and another on the way",
            "assets": [
                {
                    "name": "",
                    "credit": " Jornal Extra newspaper",
                    "date": "22-03-2022",
                    "alt": "",
                    "src": "https://novoextra.com.br/opiniao/artigos-de-elias-fragoso/2022/03/652-um-escandalo-e-outro-a-caminho",
                    "srt": ""
                }
            ]
        },
        {
            "type": "video",
            "title": "Is it possible to recover the neighborhoods?",
            "assets": [
                {
                    "name": "JOS\u00c9 GERALDO MARQUES",
                    "credit": "",
                    "date": "21-06-2021",
                    "alt": "Is it possible to recover the neighborhoods? What is the future of the region?",
                    "src": "https://vimeo.com/683090895/15d7df69a8",
                    "srt": "JOSE_16"
                }
            ]
        },
        {
            "type": "video",
            "title": "The future of affected neighborhoods.",
            "assets": [
                {
                    "name": "EDIBERTO TICIANELI",
                    "credit": "",
                    "date": "23-06-2021",
                    "alt": "What is the future of the affected neighborhoods region and of Macei\u00f3?",
                    "src": "https://vimeo.com/685559810/d5588696ca",
                    "srt": "EDIBERTO_06"
                }
            ]
        },
        {
            "type": "video",
            "title": "Macei\u00f3 in 20 or 30 years",
            "assets": [
                {
                    "name": "ISADORA PADILHA",
                    "credit": "",
                    "date": "08-07-2021",
                    "alt": "What is the future of the vacated neighborhoods and of Macei\u00f3 in 20 to 30 years?",
                    "src": "https://vimeo.com/685459157/c8b1ce4baf",
                    "srt": "ISADORA_16"
                }
            ]
        },
        {
            "type": "video",
            "title": "Braskem shares: with a rise of 180%, can BRKM5 grow more?",
            "assets": [
                {
                    "name": "",
                    "credit": " InvestNews BR",
                    "date": "08-09-2021",
                    "alt": "",
                    "src": "https://vimeo.com/728975520/1c3bb3c65f",
                    "srt": ""
                }
            ]
        },
        {
            "type": "video",
            "title": "People affected by subsidence in Macei\u00f3 (AL) fight for justice",
            "assets": [
                {
                    "name": "",
                    "credit": " a journalist from Record newspaper investigates",
                    "date": "04-03-2022",
                    "alt": "",
                    "src": "https://vimeo.com/728980039/4b5cbd8d5f",
                    "srt": ""
                }
            ]
        },
        {
            "type": "link",
            "title": "Petrobras and Odebrecht may postpone the sale of Braskem to the 2nd half of 2022",
            "assets": [
                {
                    "name": "",
                    "credit": " EXTRA newspaper",
                    "date": "09-02-2022",
                    "alt": "",
                    "src": "https://novoextra.com.br/noticias/alagoas/2022/02/75196-petrobras-e-odebrecht-podem-adiar-venda-da-braskem-para-o-20-semestre-de-2022",
                    "srt": ""
                }
            ]
        },
        {
            "type": "video",
            "title": "What is the future of the region?",
            "assets": [
                {
                    "name": "ABEL GALINDO",
                    "credit": "",
                    "date": "01-06-2021",
                    "alt": "What is the future of the region?",
                    "src": "https://vimeo.com/685477330/bbfe101238",
                    "srt": "ABEL_14"
                }
            ]
        },
        {
            "type": "video",
            "title": "Is it possible to recover the neighborhoods? How do you envision the future of the region?",
            "assets": [
                {
                    "name": "DIEGO RODRIGUES",
                    "credit": "",
                    "date": "28-06-2021",
                    "alt": "Is it possible to recover the neighborhoods? What is the future of the region?",
                    "src": "https://vimeo.com/683105736/201272a971",
                    "srt": "DIEGO_07"
                }
            ]
        },
        {
            "type": "link",
            "title": "Timeline",
            "assets": [
                {
                    "name": "",
                    "credit": " Federal public ministry",
                    "date": "",
                    "alt": "",
                    "src": "http://www.mpf.mp.br/grandes-casos/caso-pinheiro/linha-do-tempo",
                    "srt": ""
                }
            ]
        },
        {
            "type": "link",
            "title": "Summary and repository of the Pinheiro/Braskem Case \u2013 Federal Public Ministry",
            "assets": [
                {
                    "name": "",
                    "credit": " Federal public ministry",
                    "date": "",
                    "alt": "",
                    "src": "http://www.mpf.mp.br/grandes-casos/caso-pinheiro",
                    "srt": ""
                }
            ]
        },
        {
            "type": "video",
            "title": " How can the population act for the cause?",
            "assets": [
                {
                    "name": "ISADORA PADILHA",
                    "credit": "",
                    "date": "08-07-2021",
                    "alt": "How can the population act for the cause?",
                    "src": "https://vimeo.com/685458799/5fff60db23",
                    "srt": "ISADORA_17"
                }
            ]
        }
    ],
    "title": " Future",
    "txt": "The uncertainty about the future of the areas affected by the disaster imposes a deep debate about the city of Macei\u00f3 and its historical problems. Is it possible to imagine and make concrete the utopia of a fair and healthy city? How to rebuild new life in the territories affected by the tragedy?",
    "bg": " https://vimeo.com/744048440/37ae6cd811",
    "subtitle": "https://drive.google.com/file/d/1vUTwr9d200yBeHdOd0gw6xGeQTLQOR_C/view?usp=sharing",
    "more": "https://drive.google.com/file/d/1-BW_phkOLg_oN6UCJ4hwAVfQUsgfo8HW/view?usp=sharing"
}