{
    "links": [
        {
            "type": "galeria",
            "title": " First interventions by Salgema in Pontal da Barra",
            "assets": [
                {
                    "name": "",
                    "credit": "N\u00facleo Zero Association",
                    "date": "",
                    "alt": " Start of the intervention in Pontal da Barra (N\u00facleo Zero Collection)",
                    "src": "3_4_1",
                    "srt": ""
                },
                {
                    "name": "",
                    "credit": "",
                    "date": "",
                    "alt": " Start of the intervention in Pontal da Barra (N\u00facleo Zero Association Collection)",
                    "src": "3_4_2",
                    "srt": ""
                },
                {
                    "name": "",
                    "credit": "",
                    "date": "",
                    "alt": " Start of the intervention in Pontal da Barra (N\u00facleo Zero Association Collection)",
                    "src": "3_4_3",
                    "srt": ""
                },
                {
                    "name": "",
                    "credit": "",
                    "date": "",
                    "alt": " Start of the intervention in Pontal da Barra (N\u00facleo Zero Association Collection)",
                    "src": "3_4_0",
                    "srt": ""
                }
            ]
        },
        {
            "type": "galeria",
            "title": " Construction site",
            "assets": [
                {
                    "name": "",
                    "credit": "Public Archive",
                    "date": "",
                    "alt": "Construction site",
                    "src": "3_2_1",
                    "srt": ""
                },
                {
                    "name": "",
                    "credit": "",
                    "date": "",
                    "alt": "Construction site",
                    "src": "3_2_2",
                    "srt": ""
                },
                {
                    "name": "",
                    "credit": "",
                    "date": "",
                    "alt": "Construction site",
                    "src": "3_2_3",
                    "srt": ""
                },
                {
                    "name": "",
                    "credit": "",
                    "date": "",
                    "alt": "Construction site",
                    "src": "3_2_4",
                    "srt": ""
                },
                {
                    "name": "",
                    "credit": "",
                    "date": "",
                    "alt": "Construction site",
                    "src": "3_2_5",
                    "srt": ""
                },
                {
                    "name": "",
                    "credit": "",
                    "date": "",
                    "alt": "Construction site",
                    "src": "3_2_0",
                    "srt": ""
                }
            ]
        },
        {
            "type": "video",
            "title": " Risks for the city",
            "assets": [
                {
                    "name": "JOS\u00c9 GERALDO MARQUES",
                    "credit": "",
                    "date": "21-06-2021",
                    "alt": "How was it possible to understand that the exploitation of rock salt would bring a risk to the city?",
                    "src": "https://vimeo.com/683089644/a5a8deaa17",
                    "srt": "JOSE_03"
                }
            ]
        },
        {
            "type": "galeria",
            "title": "Old Salgema",
            "assets": [
                {
                    "name": "",
                    "credit": " Public Archive",
                    "date": "",
                    "alt": " Old Salgema plant",
                    "src": "3_1_1",
                    "srt": ""
                },
                {
                    "name": "",
                    "credit": "",
                    "date": "",
                    "alt": " Old Salgema plant",
                    "src": "3_1_2",
                    "srt": ""
                },
                {
                    "name": "",
                    "credit": "",
                    "date": "",
                    "alt": " Old Salgema plant",
                    "src": "3_1_3",
                    "srt": ""
                },
                {
                    "name": "",
                    "credit": "",
                    "date": "",
                    "alt": " Old Salgema plant",
                    "src": "3_1_4",
                    "srt": ""
                },
                {
                    "name": "",
                    "credit": "",
                    "date": "",
                    "alt": " Old Salgema plant",
                    "src": "3_1_5",
                    "srt": ""
                },
                {
                    "name": "",
                    "credit": "",
                    "date": "",
                    "alt": " Old Salgema plant",
                    "src": "3_1_0",
                    "srt": ""
                }
            ]
        },
        {
            "type": "documento",
            "title": "Decree of concession for Salgema to mine in the urban territory of Macei\u00f3",
            "assets": [
                {
                    "name": "",
                    "credit": "",
                    "date": "15-06-1970",
                    "alt": "",
                    "src": "3_0",
                    "srt": ""
                }
            ]
        },
        {
            "type": "documento",
            "title": "Mining concession to Salgema",
            "assets": [
                {
                    "name": "",
                    "credit": " official diary",
                    "date": "16-06-1970",
                    "alt": "",
                    "src": "3_1",
                    "srt": ""
                }
            ]
        },
        {
            "type": "imagem",
            "title": "Salgema plant project explanation",
            "assets": [
                {
                    "name": "",
                    "credit": "",
                    "date": "",
                    "alt": " Old Salgema plant",
                    "src": "3_0_0",
                    "srt": ""
                }
            ]
        },
        {
            "type": "video",
            "title": "Creation of the Pollution Control Secretariat ",
            "assets": [
                {
                    "name": "JOS\u00c9 GERALDO MARQUES",
                    "credit": "",
                    "date": "21-06-2021",
                    "alt": " How did the creation of the Pollution Control Secretariat in 1974 take place?",
                    "src": "https://vimeo.com/683089189/b758943738",
                    "srt": "JOSE_01"
                }
            ]
        },
        {
            "type": "video",
            "title": "Secretary of the Pollution Control taking office",
            "assets": [
                {
                    "name": "JOS\u00c9 GERALDO MARQUES",
                    "credit": "",
                    "date": "21-06-2021",
                    "alt": " What was it like to take over the Pollution Control Secretariat during the Suruagy government?",
                    "src": "https://vimeo.com/683089483/23806b31ea",
                    "srt": "JOSE_02"
                }
            ]
        },
        {
            "type": "galeria",
            "title": " Salgema establishments",
            "assets": [
                {
                    "name": "",
                    "credit": " Public Archive",
                    "date": "",
                    "alt": " Salgema plants",
                    "src": "3_3_1",
                    "srt": ""
                },
                {
                    "name": "",
                    "credit": "",
                    "date": "",
                    "alt": " Salgema plants",
                    "src": "3_3_2",
                    "srt": ""
                },
                {
                    "name": "",
                    "credit": "",
                    "date": "",
                    "alt": " Salgema plants",
                    "src": "3_3_3",
                    "srt": ""
                },
                {
                    "name": "",
                    "credit": "",
                    "date": "",
                    "alt": " Salgema plants",
                    "src": "3_3_4",
                    "srt": ""
                },
                {
                    "name": "",
                    "credit": "",
                    "date": "",
                    "alt": " Salgema plants",
                    "src": "3_3_5",
                    "srt": ""
                },
                {
                    "name": "",
                    "credit": "",
                    "date": "",
                    "alt": " Salgema plants",
                    "src": "3_3_6",
                    "srt": ""
                },
                {
                    "name": "",
                    "credit": "",
                    "date": "",
                    "alt": " Salgema plants",
                    "src": "3_3_7",
                    "srt": ""
                },
                {
                    "name": "",
                    "credit": "",
                    "date": "",
                    "alt": " Salgema plants",
                    "src": "3_3_0",
                    "srt": ""
                }
            ]
        },
        {
            "type": "documento",
            "title": "Report by Divaldo Suruagy's appointed commission to assess the risks of the industrial complex",
            "assets": [
                {
                    "name": "",
                    "credit": "",
                    "date": "07-11-1983",
                    "alt": " Old Salgema plant",
                    "src": "3_2",
                    "srt": ""
                }
            ]
        }
    ],
    "title": " Creation of Salgema Chemical Industries",
    "txt": " From the creation of Salgema to its nationalization",
    "bg": " https://vimeo.com/685728772/2388951872",
    "subtitle": "https://drive.google.com/file/d/1pKlI3v2HmDc7Jik_ncwjLX_rdcf5kLlP/view?usp=sharing",
    "more": "https://drive.google.com/file/d/16nlVaLSj6EZuoXZvrpJDWAw_LsCG6EXJ/view?usp=sharing"
}