{
    "links": [
        {
            "type": "link",
            "title": "In ruins \u2013 the emotional drama of 50,000 residents of Macei\u00f3",
            "assets": [
                {
                    "name": "",
                    "credit": " Tatu agency",
                    "date": "11-12-2020",
                    "alt": "",
                    "src": "https://www.agenciatatu.com.br/noticia/em-ruinas/",
                    "srt": ""
                }
            ]
        },
        {
            "type": "video",
            "title": "The Braskem case did not have an impact on the national media",
            "assets": [
                {
                    "name": "DIEGO RODRIGUES",
                    "credit": "",
                    "date": "28-06-2021",
                    "alt": "Why do you think this case did not have national media coverage given the size of the tragedy?",
                    "src": "https://vimeo.com/683107725/e79d486279",
                    "srt": "DIEGO_05"
                }
            ]
        },
        {
            "type": "video",
            "title": "Is this a unique case in the world?",
            "assets": [
                {
                    "name": "DIEGO RODRIGUES",
                    "credit": "",
                    "date": "28-06-2021",
                    "alt": "Is this a unique case in the world?",
                    "src": "https://vimeo.com/683108293/2eab3052f6",
                    "srt": "DIEGO_04"
                }
            ]
        },
        {
            "type": "video",
            "title": "Pinheiro Hackathon",
            "assets": [
                {
                    "name": "ISADORA PADILHA",
                    "credit": "",
                    "date": "08-07-2021",
                    "alt": "What was the Pinheiro Hackathon?",
                    "src": "https://vimeo.com/685468607/a28d1c558f",
                    "srt": "ISADORA_03"
                }
            ]
        },
        {
            "type": "video",
            "title": "Damage to the population",
            "assets": [
                {
                    "name": "ABEL GALINDO",
                    "credit": "",
                    "date": "01-06-2021",
                    "alt": "What damages have been caused to the population?",
                    "src": "https://vimeo.com/685478159/93480fdd34",
                    "srt": "ABEL_12"
                }
            ]
        },
        {
            "type": "documento",
            "title": "Term of agreement to support the eviction of risk areas",
            "assets": [
                {
                    "name": "",
                    "credit": "",
                    "date": "12-2019",
                    "alt": "",
                    "src": "8_0",
                    "srt": ""
                }
            ]
        },
        {
            "type": "video",
            "title": "The sinking of neighborhoods",
            "assets": [
                {
                    "name": "DIEGO RODRIGUES",
                    "credit": "",
                    "date": "28-06-2021",
                    "alt": "How have you been monitoring the case of subsidence in the neighborhoods?",
                    "src": "https://vimeo.com/683104296/c015b7a830",
                    "srt": "DIEGO_02"
                }
            ]
        },
        {
            "type": "link",
            "title": "Four neighborhoods in Macei\u00f3 may disappear due to the mining operation",
            "assets": [
                {
                    "name": "",
                    "credit": " Brazil de Fato newspaper",
                    "date": "14-01-2020",
                    "alt": "",
                    "src": "https://www.brasildefato.com.br/2020/01/14/quatro-bairros-de-maceio-podem-desaparecer-por-conta-da-acao-de-mineradora",
                    "srt": ""
                }
            ]
        },
        {
            "type": "video",
            "title": "There was something wrong below the neighborhoods' soil level",
            "assets": [
                {
                    "name": "ABEL GALINDO",
                    "credit": "",
                    "date": "01-06-2021",
                    "alt": "How did people realize there was something wrong below the ground in the affected neighborhoods?",
                    "src": "https://vimeo.com/683540947/d9bb6dd52f",
                    "srt": "ABEL_02"
                }
            ]
        },
        {
            "type": "audio",
            "title": "Braskem ordered Equatorial to cause a power cut at Nossa Senhora da Concei\u00e7\u00e3o bakery",
            "assets": [
                {
                    "name": "",
                    "credit": "",
                    "date": "",
                    "alt": " https://soundcloud.com/user-304123272/braskem-manda-a-equatorial-cortar-a-energia-da-padaria-nossa-senhora-da-conceicao/s-sQ8HWp0nwvS?utm_source=clipboard&utm_medium=text&utm_campaign=social_sharing",
                    "src": "08_1",
                    "srt": ""
                }
            ]
        },
        {
            "type": "link",
            "title": "The Civil Defense has blocked the entry to a ten-story building in the Pinheiro neighborhood",
            "assets": [
                {
                    "name": "",
                    "credit": "Paju\u00e7ara TV",
                    "date": "23-01-2020",
                    "alt": "",
                    "src": "https://vimeo.com/728945544/caff067f48",
                    "srt": ""
                }
            ]
        },
        {
            "type": "video",
            "title": "Ways to predict the sinking problem",
            "assets": [
                {
                    "name": "ABEL GALINDO",
                    "credit": "",
                    "date": "01-06-2021",
                    "alt": "Could there be ways of predicting the subsidence?",
                    "src": "https://vimeo.com/685477899/3f3fa110ac",
                    "srt": "ABEL_13"
                }
            ]
        },
        {
            "type": "video",
            "title": "Urban, economic and social impact made by Braskem",
            "assets": [
                {
                    "name": "ISADORA PADILHA",
                    "credit": "",
                    "date": "08-07-2021",
                    "alt": "What is the urban, economic and social impact caused by Braskem for Macei\u00f3?",
                    "src": "https://vimeo.com/685462986/abac2f1c3d",
                    "srt": "ISADORA_11"
                }
            ]
        },
        {
            "type": "video",
            "title": "New risk of collapse",
            "assets": [
                {
                    "name": "ABEL GALINDO",
                    "credit": "",
                    "date": "01-06-2021",
                    "alt": "Are there any risks of further collapses?",
                    "src": "https://vimeo.com/685475633/daff774c8c",
                    "srt": "ABEL_05"
                }
            ]
        },
        {
            "type": "link",
            "title": "How a bakery and its owner made a ghost neighborhood still be found on the map of Macei\u00f3?",
            "assets": [
                {
                    "name": "",
                    "credit": " UOL Tab news",
                    "date": "27-12-2020",
                    "alt": "",
                    "src": "https://tab.uol.com.br/noticias/redacao/2020/12/27/como-uma-padaria-e-seu-dono-fazem-bairro-fantasma-seguir-no-mapa-de-maceio.htm",
                    "srt": ""
                }
            ]
        }
    ],
    "title": "Not on solid ground",
    "txt": "Mining-affected neighborhoods have caves larger than soccer fields",
    "bg": " https://vimeo.com/696358037/3209c249a2",
    "subtitle": "https://drive.google.com/file/d/1H15PG8G472SvQFv07A_QRm_yvZn23K-w/view?usp=sharing",
    "more": "https://drive.google.com/drive/u/0/folders/1O4Isnc0-2QvNpS7p73SaDbi4WI0JJ-J0"
}