{
    "links": [
        {
            "type": "video",
            "title": "Irregularidades no caso Braskem",
            "assets": [
                {
                    "name": "DIEGO RODRIGUES",
                    "credit": "",
                    "date": "28-06-2021",
                    "alt": "Voce\u0302 conseguiu identificar irregularidades ao observar o caso Brasken?",
                    "src": "https://vimeo.com/683108808/44d92356ff",
                    "srt": "DIEGO_03"
                }
            ]
        },
        {
            "type": "video",
            "title": "Como ocorreu o feno\u0302meno das subside\u0302ncias em Maceio\u0301?",
            "assets": [
                {
                    "name": "ABEL GALINDO",
                    "credit": "",
                    "date": "01-06-2021",
                    "alt": "Como ocorreu o feno\u0302meno das subside\u0302ncias em Maceio\u0301?",
                    "src": "https://vimeo.com/685473484/af85938702",
                    "srt": "ABEL_07"
                }
            ]
        },
        {
            "type": "video",
            "title": "Desastre, trage\u0301dia ou crime?",
            "assets": [
                {
                    "name": "DIEGO RODRIGUES",
                    "credit": "",
                    "date": "28-06-2021",
                    "alt": "Desastre, trage\u0301dia ou crime?",
                    "src": "https://vimeo.com/683109987/57f994417f",
                    "srt": "DIEGO_10"
                }
            ]
        },
        {
            "type": "link",
            "title": "Tremor em Macei\u00f3 pode ter sido causado por acomoda\u00e7\u00e3o de solo, diz especialista",
            "assets": [
                {
                    "name": "",
                    "credit": "AL TV",
                    "date": "05-03-2018",
                    "alt": "",
                    "src": "https://g1.globo.com/al/alagoas/noticia/tremor-em-maceio-pode-ter-sido-causado-por-acomodacao-de-solo-diz-especialista.ghtml",
                    "srt": ""
                }
            ]
        },
        {
            "type": "video",
            "title": "Os po\u00e7os que hoje est\u00e3o causando problema",
            "assets": [
                {
                    "name": "JOS\u00c9 GERALDO MARQUES",
                    "credit": "",
                    "date": "21-06-2021",
                    "alt": "Os po\u00e7os que hoje est\u00e3o causando esse problema existem desde a \u00e9poca de implanta\u00e7\u00e3o da Salgema?",
                    "src": "https://vimeo.com/683090323/a5b1a03237",
                    "srt": "JOSE_10"
                }
            ]
        },
        {
            "type": "link",
            "title": "An\u00e1lise de solo depende de equipamento espec\u00edfico",
            "assets": [
                {
                    "name": "",
                    "credit": "Gazeta de Alagoas",
                    "date": "15-03-2018",
                    "alt": "",
                    "src": "https://d.gazetadealagoas.com.br/cidades/193845/analise-de-solo-depende-de-equipamento-especifico",
                    "srt": ""
                }
            ]
        },
        {
            "type": "link",
            "title": "Pesquisadores chegam hoje para analisar rachaduras",
            "assets": [
                {
                    "name": "",
                    "credit": "Gazeta deAlagoas",
                    "date": "19-04-2018",
                    "alt": "",
                    "src": "https://d.gazetadealagoas.com.br/cidades/194921/pesquisadores-chegam-hoje-para-analisar-rachaduras",
                    "srt": ""
                }
            ]
        },
        {
            "type": "video",
            "title": "Estudos e esfor\u00e7os para alertar dos riscos",
            "assets": [
                {
                    "name": "JOS\u00c9 GERALDO MARQUES",
                    "credit": "",
                    "date": "21-06-2021",
                    "alt": "O Governo do Estado estava ciente que haviam riscos de subsid\u00eancia das minas? Houveram estudos e esfor\u00e7os para alertar os riscos?",
                    "src": "https://vimeo.com/683090372/4931dfc65c",
                    "srt": "JOSE_11"
                }
            ]
        },
        {
            "type": "documento",
            "title": "Cronograma de Estudos do Servi\u00e7o Geol\u00f3gico do Brasil no Bairro Pinheiro",
            "assets": [
                {
                    "name": "",
                    "credit": "CPRM",
                    "date": "02-02-2019",
                    "alt": "",
                    "src": "10_0",
                    "srt": ""
                }
            ]
        },
        {
            "type": "documento",
            "title": "Relato\u0301rio de Acompanhamento n.\u00ba 01",
            "assets": [
                {
                    "name": "",
                    "credit": "CPRM",
                    "date": "01-2019",
                    "alt": "",
                    "src": "10_1",
                    "srt": ""
                }
            ]
        },
        {
            "type": "documento",
            "title": "Relato\u0301rio de Acompanhamento n.\u00ba 02",
            "assets": [
                {
                    "name": "",
                    "credit": "CPRM",
                    "date": "01-2019",
                    "alt": "",
                    "src": "10_2",
                    "srt": ""
                }
            ]
        },
        {
            "type": "documento",
            "title": "Relato\u0301rio de Acompanhamento n.\u00ba 03",
            "assets": [
                {
                    "name": "",
                    "credit": "CPRM",
                    "date": "01-2019",
                    "alt": "",
                    "src": "10_3",
                    "srt": ""
                }
            ]
        },
        {
            "type": "documento",
            "title": "Apresenta\u00e7\u00e3o da CPRM em audi\u00eancia p\u00fablica no Senado em 21-03-2019 ",
            "assets": [
                {
                    "name": "",
                    "credit": "CPRM",
                    "date": "21-03-2019",
                    "alt": "",
                    "src": "10_4",
                    "srt": ""
                }
            ]
        },
        {
            "type": "video",
            "title": "Boicote na Audi\u00eancia P\u00fablica em 08-05-2019",
            "assets": [
                {
                    "name": "JOS\u00c9 GERALDO MARQUES",
                    "credit": "",
                    "date": "21-06-2021",
                    "alt": "Como aconteceu o boicote que voc\u00ea sofreu durante a Audi\u00eancia P\u00fablica de divulga\u00e7\u00e3o das causas pela CPRM em 08/05/2019?",
                    "src": "https://vimeo.com/683090699/c8d211f9d2",
                    "srt": "JOSE_14"
                }
            ]
        },
        {
            "type": "documento",
            "title": "Mapa de setoriza\u00e7\u00e3o de danos e de linhas de a\u00e7\u00f5es priorit\u00e1rias - Vers\u00e3o 1",
            "assets": [
                {
                    "name": "",
                    "credit": "CPRM e Defesa Civ\u00edl",
                    "date": "06-2019",
                    "alt": "",
                    "src": "10_5",
                    "srt": ""
                }
            ]
        },
        {
            "type": "documento",
            "title": "Apresenta\u00e7\u00e3o IMA - Audie\u0302ncia Pu\u0301blica - 19-11-2019",
            "assets": [
                {
                    "name": "",
                    "credit": "IMA",
                    "date": "10-11-2019",
                    "alt": "",
                    "src": "10_6",
                    "srt": ""
                }
            ]
        },
        {
            "type": "video",
            "title": "A Braskem parou a extra\u00e7\u00e3o de sal-gema em Macei\u00f3?",
            "assets": [
                {
                    "name": "ABEL GALINDO",
                    "credit": "",
                    "date": "01-06-2021",
                    "alt": "A Braskem realmente parou a extra\u00e7\u00e3o de sal-gema em Macei\u00f3?",
                    "src": "https://vimeo.com/685478715/6282e152bc",
                    "srt": "ABEL_11"
                }
            ]
        }
    ],
    "title": "A investiga\u00e7\u00e3o",
    "txt": "Especialistas buscam respostas para o tremor.",
    "bg": "https://vimeo.com/696749431/6b93adab37",
    "subtitle": "https://drive.google.com/file/d/1ZParLAILQGl-dfFxEh-MvV0x5XsYX7ja/view?usp=sharing",
    "more": "https://drive.google.com/file/d/1RsyWe35rhkS7pFeAVQQcjjMBde_oagKp/view?usp=sharing"
}