{
    "links": [
        {
            "type": "video",
            "title": "Afundamento de Macei\u00f3 provoca \u00eaxodo urbano de 55 mil pessoas",
            "assets": [
                {
                    "name": "",
                    "credit": "Metr\u00f3poles",
                    "date": "23-05-2021",
                    "alt": "",
                    "src": "https://vimeo.com/728952067/4484297391",
                    "srt": ""
                }
            ]
        },
        {
            "type": "link",
            "title": "Ap\u00f3s dois anos do acordo entre MPs, DPs e Braskem, empreendedores seguem \u00e0 m\u00edngua",
            "assets": [
                {
                    "name": "",
                    "credit": "Tribuna Hoje",
                    "date": "21-01-2022",
                    "alt": "",
                    "src": "https://tribunahoje.com/noticias/cidades/2022/01/21/97748-apos-dois-anos-do-acordo-entre-mps-dps-e-braskem-empreendedores-seguem-a-mingua",
                    "srt": ""
                }
            ]
        },
        {
            "type": "video",
            "title": "O Programa de Compensa\u00e7\u00e3o Financeira aos moradores",
            "assets": [
                {
                    "name": "ISADORA PADILHA",
                    "credit": "",
                    "date": "08-07-2021",
                    "alt": "Como est\u00e1 a situa\u00e7\u00e3o passado um ano desde que se iniciou o Programa de Compensa\u00e7\u00e3o Financeira aos moradores dos bairros atingidos?",
                    "src": "https://vimeo.com/685466231/8b55fe9a08",
                    "srt": "ISADORA_07"
                }
            ]
        },
        {
            "type": "link",
            "title": "Ap\u00f3s 40 anos, panifica\u00e7\u00e3o no Pinheiro fecha cobrando justi\u00e7a e lutando contra o abandono das autoridades",
            "assets": [
                {
                    "name": "",
                    "credit": "M\u00eddia Caet\u00e9",
                    "date": "27-01-2022",
                    "alt": "",
                    "src": "https://midiacaete.com.br/apos-40-anos-panificacao-no-pinheiro-fecha-cobrando-justica-e-lutando-contra-o-abandono-das-autoridades/",
                    "srt": ""
                }
            ]
        },
        {
            "type": "video",
            "title": "O processo de desocupa\u00e7\u00e3o e a participa\u00e7\u00e3o social no processo",
            "assets": [
                {
                    "name": "ISADORA PADILHA",
                    "credit": "",
                    "date": "08-07-2021",
                    "alt": "Como foi o processo de desocupa\u00e7\u00e3o, os acordos de compensa\u00e7\u00e3o financeira e a participa\u00e7\u00e3o social no processo?",
                    "src": "https://vimeo.com/685465602/3d6f37b8a9",
                    "srt": "ISADORA_08"
                }
            ]
        },
        {
            "type": "link",
            "title": "Moradores de bairro que afundou cobram h\u00e1 4 anos repara\u00e7\u00e3o de mineradora",
            "assets": [
                {
                    "name": "",
                    "credit": "Brasil de Fato",
                    "date": "22-03-2022",
                    "alt": "",
                    "src": "https://www.brasildefato.com.br/2022/03/22/braskem-moradores-de-bairro-que-afundou-em-maceio-cobram-ha-4-anos-reparacao-de-mineradora",
                    "srt": ""
                }
            ]
        },
        {
            "type": "video",
            "title": "Preju\u00edzos ambientais e sociourban\u00edsticos",
            "assets": [
                {
                    "name": "ISADORA PADILHA",
                    "credit": "",
                    "date": "08-07-2021",
                    "alt": "Com cerca de 14.319 im\u00f3veis e 55 mil pessoas atingidas diretamente, quais os principais preju\u00edzos ambientais e sociourban\u00edsticos?",
                    "src": "https://vimeo.com/685463942/254db16242",
                    "srt": "ISADORA_10"
                }
            ]
        },
        {
            "type": "link",
            "title": "Minera\u00e7\u00e3o urbana transforma bairros do Brasil em cidades-fantasma",
            "assets": [
                {
                    "name": "",
                    "credit": "AP News",
                    "date": "20-03-2022",
                    "alt": "",
                    "src": "https://apnews.com/article/business-lifestyle-environment-brazil-neighborhoods-da0095fe829a545d72faa598a64814bd",
                    "srt": ""
                }
            ]
        }
    ],
    "title": "O \u00eaxodo e a cidade-fantasma",
    "txt": "Atrav\u00e9s de acordos intermediados pelo Minist\u00e9rio P\u00fablico Federal, a Braskem \u00e9 obrigada a reconhecer sua responsabilidade. Aproximadamente 60 mil pessoas tiveram que deixar suas casas, mas o c\u00e1lculo indenizat\u00f3rio n\u00e3o dimensiona bem a propor\u00e7\u00e3o da trag\u00e9dia.",
    "bg": "https://vimeo.com/700566047/23de07727f",
    "subtitle": "https://drive.google.com/file/d/1cAsh9mEZWHcOt4ClDFzqcqxgHP556nVD/view?usp=sharing",
    "more": "https://drive.google.com/file/d/1gX9hq_bTiW3BFouDijagdL6oqbYhVMwf/view?usp=sharing"
}