{
    "links": [
        {
            "type": "video",
            "title": "Em 1985 aconteceu um protesto contra a duplica\u00e7\u00e3o da Salgema",
            "assets": [
                {
                    "name": "JOS\u00c9 GERALDO MARQUES",
                    "credit": "",
                    "date": "21-06-2021",
                    "alt": "Como foi o protesto contra a duplica\u00e7\u00e3o da planta industrial da Salgema ocorrido em 1985?",
                    "src": "https://vimeo.com/683090170/9850a9216b",
                    "srt": "JOSE_08"
                }
            ]
        },
        {
            "type": "imagem",
            "title": "Um movimento pela vida",
            "assets": [
                {
                    "name": "",
                    "credit": "A Voz do Jornalista",
                    "date": "07-1985",
                    "alt": "",
                    "src": "5_0_4",
                    "srt": ""
                }
            ]
        },
        {
            "type": "imagem",
            "title": "Mais uma bomba no cora\u00e7\u00e3o de Macei\u00f3",
            "assets": [
                {
                    "name": "",
                    "credit": "Tribuna",
                    "date": "06-08-1986",
                    "alt": "",
                    "src": "5_0_3",
                    "srt": ""
                }
            ]
        },
        {
            "type": "imagem",
            "title": "Jornalistas v\u00e3o a justi\u00e7a contra a duplica\u00e7\u00e3o da Salgema",
            "assets": [
                {
                    "name": "",
                    "credit": "Jornal",
                    "date": "22-07-1987",
                    "alt": "",
                    "src": "5_0_2",
                    "srt": ""
                }
            ]
        },
        {
            "type": "video",
            "title": "Rea\u00e7\u00f5es contra a amplia\u00e7\u00e3o da Salgema",
            "assets": [
                {
                    "name": "EDIBERTO TICIANELI",
                    "credit": "",
                    "date": "23-06-2021",
                    "alt": "Como foram os movimentos e rea\u00e7\u00f5es contra a amplia\u00e7\u00e3o da Salgema em 1985?",
                    "src": "https://vimeo.com/683541435/9fc5bf1be9",
                    "srt": "EDIBERTO_02"
                }
            ]
        },
        {
            "type": "imagem",
            "title": "Ato contra a duplica\u00e7\u00e3o da Salgema",
            "assets": [
                {
                    "name": "",
                    "credit": "Foto Josival Monteiro",
                    "date": "1985",
                    "alt": "",
                    "src": "5_0_0",
                    "srt": ""
                }
            ]
        },
        {
            "type": "imagem",
            "title": "Ato contra a duplica\u00e7\u00e3o da Salgema - Concentra\u00e7\u00e3o na Pra\u00e7a D. Pedro II",
            "assets": [
                {
                    "name": "",
                    "credit": "Foto Josival Monteiro",
                    "date": "1985",
                    "alt": "",
                    "src": "5_0_1",
                    "srt": ""
                }
            ]
        },
        {
            "type": "video",
            "title": "Mobiliza\u00e7\u00f5es pol\u00edticas para investigar os riscos",
            "assets": [
                {
                    "name": "JOS\u00c9 GERALDO MARQUES",
                    "credit": "",
                    "date": "21-06-2021",
                    "alt": "Na \u00e9poca aconteceram mobiliza\u00e7\u00f5es pol\u00edticas para investigar os riscos?",
                    "src": "https://vimeo.com/683090125/97a90dfc27",
                    "srt": "JOSE_07"
                }
            ]
        },
        {
            "type": "link",
            "title": "Instala\u00e7\u00e3o da ind\u00fastria no Pontal foi imposi\u00e7\u00e3o de americanos",
            "assets": [
                {
                    "name": "",
                    "credit": "Gazeta de Alagoas ",
                    "date": "17-07-2020",
                    "alt": "",
                    "src": "https://d.gazetadealagoas.com.br/politica/278459/instalacao-da-industria-no-pontal-foi-imposicao-de-americanos",
                    "srt": ""
                }
            ]
        },
        {
            "type": "video",
            "title": "Projeto Catavento para mitiga\u00e7\u00e3o de impactos ambientais",
            "assets": [
                {
                    "name": "JOS\u00c9 GERALDO MARQUES",
                    "credit": "",
                    "date": "21-06-2021",
                    "alt": "O que foi o projeto Catavento da Defesa Civi\u0301l na d\u00e9cada de 70, para mitiga\u00e7\u00e3o de impactos ambientais?",
                    "src": "https://vimeo.com/683091697/771c09a689",
                    "srt": "JOSE_20"
                }
            ]
        },
        {
            "type": "video",
            "title": "Retalia\u00e7\u00f5es contra a milit\u00e2ncia",
            "assets": [
                {
                    "name": "JOS\u00c9 GERALDO MARQUES",
                    "credit": "",
                    "date": "21-06-2021",
                    "alt": "Houveram retalia\u00e7\u00f5es a sua atua\u00e7\u00e3o durante seu tempo de milit\u00e2ncia?",
                    "src": "https://vimeo.com/683091618/bacbc71134",
                    "srt": "JOSE_19"
                }
            ]
        }
    ],
    "title": "Efeitos e rea\u00e7\u00f5es contr\u00e1rias",
    "txt": "As explos\u00f5es, acidentes e rea\u00e7\u00f5es contr\u00e1rias \u00e0 instala\u00e7\u00e3o da Salgema Ind\u00fastrias Qu\u00edmicas",
    "bg": "https://vimeo.com/696312873/95856aa155",
    "subtitle": "https://drive.google.com/file/d/1fKClS6kzmM3L5VWwin4GrwcHQvdud07m/view?usp=sharing",
    "more": "https://drive.google.com/file/d/10d1uoQfTo42DGWx-6MKmYBIKXwzNAONd/view?usp=sharing"
}