{
    "links": [
        {
            "type": "imagem",
            "title": "Tremor registrado por c\u00e2mera de seguran\u00e7a no Pinheiro",
            "assets": [
                {
                    "name": "",
                    "credit": "",
                    "date": "",
                    "alt": "GIF",
                    "src": "7_0_0",
                    "srt": ""
                }
            ]
        },
        {
            "type": "link",
            "title": "Tremor de terra em Macei\u00f3",
            "assets": [
                {
                    "name": "",
                    "credit": "Centro de Sismologia da USP",
                    "date": "03-03--2018",
                    "alt": "",
                    "src": "http://moho.iag.usp.br/reports/20180306/",
                    "srt": ""
                }
            ]
        },
        {
            "type": "video",
            "title": "Acorda Macei\u00f3!",
            "assets": [
                {
                    "name": "ABEL GALINDO",
                    "credit": "",
                    "date": "01-06-2021",
                    "alt": "Acorda Macei\u00f3!",
                    "src": "https://vimeo.com/685475891/1abe596b7a",
                    "srt": "ABEL_03"
                }
            ]
        },
        {
            "type": "link",
            "title": "Tremor de terra assusta moradores de Macei\u00f3",
            "assets": [
                {
                    "name": "",
                    "credit": "AL TV",
                    "date": "03-03-2018",
                    "alt": "",
                    "src": "https://globoplay.globo.com/v/6549686/",
                    "srt": ""
                }
            ]
        },
        {
            "type": "link",
            "title": "Tremor de Terra \u00e9 registrado em v\u00e1rios bairros em Macei\u00f3",
            "assets": [
                {
                    "name": "",
                    "credit": "G1",
                    "date": "03-03-2018",
                    "alt": "",
                    "src": "https://g1.globo.com/al/alagoas/noticia/tremor-de-terra-e-registrado-em-varios-bairros-de-maceio.ghtml",
                    "srt": ""
                }
            ]
        },
        {
            "type": "video",
            "title": "Onde estava quando aconteceu o terremoto?",
            "assets": [
                {
                    "name": "JOS\u00c9 GERALDO MARQUES",
                    "credit": "",
                    "date": "21-06-2021",
                    "alt": "Onde voc\u00ea estava quando aconteceu o terremoto? ",
                    "src": "https://vimeo.com/683090480/d9aa9f5a45",
                    "srt": "JOSE_12"
                }
            ]
        },
        {
            "type": "link",
            "title": "Fissuras no bairro do Pinheiro voltam a abrir ap\u00f3s fortes chuvas",
            "assets": [
                {
                    "name": "",
                    "credit": "AL TV",
                    "date": "03-03-2018",
                    "alt": "",
                    "src": "https://globoplay.globo.com/v/6549681/?s=0s",
                    "srt": ""
                }
            ]
        },
        {
            "type": "video",
            "title": "Quando o terremoto ocorreu, j\u00e1 se sabia da culpa da Braskem?",
            "assets": [
                {
                    "name": "JOS\u00c9 GERALDO MARQUES",
                    "credit": "",
                    "date": "21-06-2021",
                    "alt": "Quando o terremoto ocorreu, havia a possibilidade de saber que era uma subsid\u00eancia por causa da a\u00e7\u00e3o da Braskem?",
                    "src": "https://vimeo.com/683090619/98195ec83c",
                    "srt": "JOSE_13"
                }
            ]
        },
        {
            "type": "video",
            "title": "Moradores sentem tremor de terra em bairros de Macei\u00f3",
            "assets": [
                {
                    "name": "",
                    "credit": "Estad\u00e3o Alagoas",
                    "date": "03-03-2018",
                    "alt": "",
                    "src": "https://vimeo.com/728943642/11d308b272",
                    "srt": ""
                }
            ]
        },
        {
            "type": "imagem",
            "title": "Sismograma - Registro do tremor",
            "assets": [
                {
                    "name": "",
                    "credit": "Esta\u00e7\u00e3o NBCA",
                    "date": "03-03-2018",
                    "alt": "",
                    "src": "7_0_1",
                    "srt": ""
                }
            ]
        },
        {
            "type": "video",
            "title": "Onde voc estava no dia do terremoto?",
            "assets": [
                {
                    "name": "ABEL GALINDO",
                    "credit": "",
                    "date": "01-06-2021",
                    "alt": "Onde voc\u00ea estava quando aconteceu o terremoto? ",
                    "src": "https://vimeo.com/685471600/0bb2ab2bc1",
                    "srt": "ABEL_04"
                }
            ]
        },
        {
            "type": "link",
            "title": "Especialistas buscam respostas para tremor",
            "assets": [
                {
                    "name": "",
                    "credit": "Gazeta de Alagoas",
                    "date": "10-03-2018",
                    "alt": "",
                    "src": "https://d.gazetadealagoas.com.br/cidades/193727/especialistas-buscam-respostas-para-tremor",
                    "srt": ""
                }
            ]
        },
        {
            "type": "video",
            "title": "Quem \u00e9 o maior conhecedor do solo de Macei\u00f3?",
            "assets": [
                {
                    "name": "ABEL GALINDO",
                    "credit": "",
                    "date": "01-06-2021",
                    "alt": "Quem \u00e9 o maior conhecedor do solo da cidade de Macei\u00f3?",
                    "src": "https://vimeo.com/683540652/9b4d3e7780",
                    "srt": "ABEL_01"
                }
            ]
        }
    ],
    "title": "Quando a terra tremeu",
    "txt": "Um estrondoso abalo s\u00edsmico \u00e9 sentido em v\u00e1rios bairros da cidade de Macei\u00f3. Buracos e rachaduras come\u00e7am a surgir em casas e ruas. Inicia-se um dos maiores desastres socioambientais do mundo.",
    "bg": "https://vimeo.com/696313277/33b5eb4eda",
    "subtitle": "https://drive.google.com/file/d/1xIrcpwvcgdM9Hvk3ZQA6HWQ9j3dUkt_D/view?usp=sharing",
    "more": "https://drive.google.com/file/d/1Yy9a8nBwoHp_Mo-cB9X15_nsteCW_eOi/view?usp=sharing"
}